[
  {
    "id": "12312321",
    "name": "nombre de agrupación",
    "date": "2020-08-23T10:20Z",
    "user": "User ECI",
    "site": "www.elcorteingles.es",
    "comments": "commentario mock",
    "action": "created"
  },
  {
    "id": "12312321",
    "name": "nombre de agrupación",
    "date": "2020-08-23T10:20Z",
    "user": "User ECI",
    "site": "www.elcorteingles.es",
    "comments": "commentario mock",
    "action": "updated"
  },
  {
    "id": "12312321",
    "name": "nombre de agrupación",
    "date": "2020-08-23T10:20Z",
    "user": "User ECI",
    "site": "www.elcorteingles.es",
    "comments": "commentario mock",
    "action": "deleted"
  },
  {
    "id": "12312321",
    "name": "nombre de agrupación",
    "date": "2020-08-23T10:20Z",
    "user": "User ECI",
    "site": "www.elcorteingles.es",
    "comments": "commentario mock",
    "action": "created"
  },
  {
    "id": "12312321",
    "name": "nombre de agrupación",
    "date": "2020-08-23T10:20Z",
    "user": "User ECI",
    "site": "www.elcorteingles.es",
    "comments": "commentario mock",
    "action": "updated"
  },
  {
    "id": "12312321",
    "name": "nombre de agrupación",
    "date": "2020-08-23T10:20Z",
    "user": "User ECI",
    "site": "www.elcorteingles.es",
    "comments": "commentario mock",
    "action": "deleted"
  },
  {
    "id": "12312321",
    "name": "nombre de agrupación",
    "date": "2020-08-23T10:20Z",
    "user": "User ECI",
    "site": "www.elcorteingles.es",
    "comments": "commentario mock",
    "action": "created"
  },
  {
    "id": "12312321",
    "name": "nombre de agrupación",
    "date": "2020-08-23T10:20Z",
    "user": "User ECI",
    "site": "www.elcorteingles.es",
    "comments": "commentario mock",
    "action": "updated"
  },
  {
    "id": "12312321",
    "name": "nombre de agrupación",
    "date": "2020-08-23T10:20Z",
    "user": "User ECI",
    "site": "www.elcorteingles.es",
    "comments": "commentario mock",
    "action": "deleted"
  },
  {
    "id": "12312321",
    "name": "nombre de agrupación",
    "date": "2020-08-23T10:20Z",
    "user": "User ECI",
    "site": "www.elcorteingles.es",
    "comments": "commentario mock",
    "action": "created"
  },
  {
    "id": "12312321",
    "name": "nombre de agrupación",
    "date": "2020-08-23T10:20Z",
    "user": "User ECI",
    "site": "www.elcorteingles.es",
    "comments": "commentario mock",
    "action": "updated"
  },
  {
    "id": "12312321",
    "name": "nombre de agrupación",
    "date": "2020-08-23T10:20Z",
    "user": "User ECI",
    "site": "www.elcorteingles.es",
    "comments": "commentario mock",
    "action": "deleted"
  },
  {
    "id": "12312321",
    "name": "nombre de agrupación",
    "date": "2020-08-23T10:20Z",
    "user": "User ECI",
    "site": "www.elcorteingles.es",
    "comments": "commentario mock",
    "action": "created"
  },
  {
    "id": "12312321",
    "name": "nombre de agrupación",
    "date": "2020-08-23T10:20Z",
    "user": "User ECI",
    "site": "www.elcorteingles.es",
    "comments": "commentario mock",
    "action": "updated"
  },
  {
    "id": "12312321",
    "name": "nombre de agrupación",
    "date": "2020-08-23T10:20Z",
    "user": "User ECI",
    "site": "www.elcorteingles.es",
    "comments": "commentario mock",
    "action": "deleted"
  }
]
