{
  "/api/products/attribute-tree-node/v1/attribute-tree-nodes-types/pz3c2qg46aax5q": {
    "changeOrigin": true,
    "logLevel": "debug",
    "pathRewrite": {
      "^/api/products/attribute-tree-node/v1/attribute-tree-nodes/product-types/pz3c2qg46aax5q": ""
    },
    "secure": false,
    "target": "https://bo-attribute-tree-node-api.ave.eci.geci/product-types/pz3c2qg46aax5q"
  },
  "/api/products/backoffice-admin-group-folders/v1/admin-group-folders": {
    "changeOrigin": true,
    "logLevel": "debug",
    "pathRewrite": {
      "^/api/products/backoffice-admin-group-folders/v1/admin-group-folders": ""
    },
    "secure": false,
    "target": "https://bo-admin-group-folder-apisyn.ave.eci.geci/admin-group-folders"
  },
  "/api/products/backoffice-admin-groups/v1": {
    "changeOrigin": true,
    "logLevel": "debug",
    "pathRewrite": {
      "^/api/products/backoffice-admin-groups/v1": ""
    },
    "secure": false,
    "target": "https://bo-admin-group-apisyn.ave.eci.geci"
  },
  "/api/products/backoffice-admin-groups/v1/types": {
    "changeOrigin": true,
    "logLevel": "debug",
    "pathRewrite": {
      "^/api/products/backoffice-admin-groups/v1/types": ""
    },
    "secure": false,
    "target": "https://bo-admin-groups-apisyn.ave.eci.geci/types"
  },
  "/api/products/backoffice-assortment/v1/product_searchers": {
    "changeOrigin": true,
    "logLevel": "debug",
    "pathRewrite": {
      "^/api/products/backoffice-assortment/v1/product_searchers": ""
    },
    "secure": false,
    "target": "https://rules-assortment-api.ave.eci.geci/product_searchers"
  },
  "/api/products/backoffice-attribute-tree-nodes/v1/tree-nodes-types": {
    "changeOrigin": true,
    "logLevel": "debug",
    "pathRewrite": {
      "^/api/products/backoffice-attribute-tree-nodes/v1/tree-nodes-types": ""
    },
    "secure": false,
    "target": "https://bo-attribute-tree-node-api.ave.eci.geci/tree-nodes-types"
  },
  "/api/products/backoffice-attributes-translations/v2/attributes-translations": {
    "changeOrigin": true,
    "logLevel": "debug",
    "pathRewrite": {
      "^/api/products/backoffice-attributes-translations/v2/attributes-translations": ""
    },
    "secure": false,
    "target": "https://bo-attribute-translate-apisyn.ave.eci.geci/attributes-translations"
  },
  "/api/products/backoffice-audit-catalog-dashboard/v1/offers": {
    "changeOrigin": true,
    "logLevel": "debug",
    "pathRewrite": {
      "^/api/products/backoffice-audit-catalog-dashboard/v1": ""
    },
    "secure": false,
    "target": "https://audit-catalog-dashboard-api.ave.eci.geci"
  },
  "/api/products/backoffice-audit-catalog-dashboard/v1/products": {
    "changeOrigin": true,
    "logLevel": "debug",
    "pathRewrite": {
      "^/api/products/backoffice-audit-catalog-dashboard/v1": ""
    },
    "secure": false,
    "target": "https://audit-catalog-dashboard-api.ave.eci.geci"
  },
  "/api/products/backoffice-audit-catalog-dashboard/v1/products-variants/eans": {
    "changeOrigin": true,
    "logLevel": "debug",
    "pathRewrite": {
      "^/api/products/backoffice-audit-catalog-dashboard/v1": ""
    },
    "secure": false,
    "target": "https://audit-catalog-dashboard-api.ave.eci.geci"
  },
  "/api/products/backoffice-audit-catalog-dashboard/v1/products-variants/unique-codes": {
    "changeOrigin": true,
    "logLevel": "debug",
    "pathRewrite": {
      "^/api/products/backoffice-audit-catalog-dashboard/v1": ""
    },
    "secure": false,
    "target": "https://audit-catalog-dashboard-api.ave.eci.geci"
  },
  "/api/products/backoffice-category-rules/v1/categories": {
    "changeOrigin": true,
    "logLevel": "debug",
    "pathRewrite": {
      "^/api/products/backoffice-category-rules/v1/categories": ""
    },
    "secure": false,
    "target": "https://bo-category-rule-apisyn.ave.eci.geci/categories"
  },
  "/api/products/backoffice-content-groups/v1/content-groups": {
    "changeOrigin": true,
    "logLevel": "debug",
    "pathRewrite": {
      "^/api/products/backoffice-content-groups/v1/content-groups": ""
    },
    "secure": false,
    "target": "https://bo-content-group-apisyn.ave.eci.geci/content-groups"
  },
  "/api/products/backoffice-entities/v1/entities": {
    "changeOrigin": true,
    "logLevel": "debug",
    "pathRewrite": {
      "^/api/products/backoffice-entities/v1/entities": ""
    },
    "secure": false,
    "target": "https://bo-entity-apisyn.ave.eci.geci/entities"
  },
  "/api/products/backoffice-entities/v1/entities/type": {
    "changeOrigin": true,
    "logLevel": "debug",
    "pathRewrite": {
      "^/api/products/backoffice-entities/v1/entity/type": ""
    },
    "secure": false,
    "target": "https://bo-entity-apisyn.ave.eci.geci/entity/type"
  },
  "/api/products/backoffice-entity-types/v1/entity-types": {
    "changeOrigin": true,
    "logLevel": "debug",
    "pathRewrite": {
      "^/api/products/backoffice-entity-types/v1/entity-types": ""
    },
    "secure": false,
    "target": "https://bo-entity-type-apisyn.ave.eci.geci/entity-types"
  },
  "/api/products/backoffice-expert-admin/v1/expert-groups": {
    "changeOrigin": true,
    "logLevel": "debug",
    "pathRewrite": {
      "^/api/products/backoffice-expert-admin/v1/expert-groups": ""
    },
    "secure": false,
    "target": "https://bo-groupexpert-apisyn.ave.eci.geci/expert-groups"
  },
  "/api/products/backoffice-exploded-trees/v1/exploded-trees": {
    "changeOrigin": true,
    "logLevel": "debug",
    "pathRewrite": {
      "^/api/products/backoffice-exploded-trees/v1/exploded-trees": ""
    },
    "secure": false,
    "target": "https://bo-exploded-tree-api.ave.eci.geci/exploded-trees"
  },
  "/api/products/backoffice-facet-attributes/v1/facet-attributes": {
    "changeOrigin": true,
    "logLevel": "debug",
    "pathRewrite": {
      "^/api/products/backoffice-facet-attributes/v1/facet-attributes ": ""
    },
    "secure": false,
    "target": "https://bo-facet-attribute-api.ave.eci.geci/facet-attributes"
  },
  "/api/products/backoffice-facet-links/v1/facet-links": {
    "changeOrigin": true,
    "logLevel": "debug",
    "pathRewrite": {
      "^/api/products/backoffice-facet-links/v1/facet-links": ""
    },
    "secure": false,
    "target": "https://bo-facet-link-apisyn.ave.eci.geci/facet-links"
  },
  "/api/products/backoffice-facets/v1/facets": {
    "changeOrigin": true,
    "logLevel": "debug",
    "pathRewrite": {
      "^/api/products/backoffice-facets/v1/facets": ""
    },
    "secure": false,
    "target": "https://bo-facet-apisyn.ave.eci.geci/facets"
  },
  "/api/products/backoffice-geozones/v1/geo-zones": {
    "changeOrigin": true,
    "logLevel": "debug",
    "pathRewrite": {
      "^/api/products/backoffice-geozones/v1/geo-zones": ""
    },
    "secure": false,
    "target": "https://bo-geozones-apisyn.ave.eci.geci/geo-zones"
  },
  "/api/products/backoffice-item-flags/v1/exclude-searches": {
    "changeOrigin": true,
    "logLevel": "debug",
    "pathRewrite": {
      "^/api/products/backoffice-item-flags/v1/exclude-searches": ""
    },
    "secure": false,
    "target": "https://bo-item-flags-apisyn.ave.eci.geci/exclude-searches"
  },
  "/api/products/backoffice-item-flags/v1/exclude-searches/types/attributes": {
    "changeOrigin": true,
    "logLevel": "debug",
    "pathRewrite": {
      "^/api/products/backoffice-item-flags/v1/exclude-searches/types/attributes": ""
    },
    "secure": false,
    "target": "https://bo-item-flags-apisyn.ave.eci.geci/exclude-searches/types/attributes"
  },
  "/api/products/backoffice-item-flags/v1/limit-sales": {
    "changeOrigin": true,
    "logLevel": "debug",
    "pathRewrite": {
      "^/api/products/backoffice-item-flags/v1/limit-sales": ""
    },
    "secure": false,
    "target": "https://bo-item-flags-apisyn.ave.eci.geci/limit-sales"
  },
  "/api/products/backoffice-item-flags/v1/limit-sales/types/attributes": {
    "changeOrigin": true,
    "logLevel": "debug",
    "pathRewrite": {
      "^/api/products/backoffice-item-flags/v1/limit-sales/types/attributes": ""
    },
    "secure": false,
    "target": "https://bo-item-flags-apisyn.ave.eci.geci/limit-sales/types/attributes"
  },
  "/api/products/backoffice-product-types/v1/product-types": {
    "changeOrigin": true,
    "logLevel": "debug",
    "pathRewrite": {
      "^/api/products/backoffice-product-types/v1/product-types": ""
    },
    "secure": false,
    "target": "https://bo-product-type-api.ave.eci.geci/product-types"
  },
  "/api/products/backoffice-groupexpert/v1/expert-groups": {
    "changeOrigin": true,
    "logLevel": "debug",
    "pathRewrite": {
      "^/api/products/backoffice-groupexpert/v1/expert-groups": ""
    },
    "secure": false,
    "target": "https://bo-groupexpert-apisyn.ave.eci.geci/expert-groups"
  },
  "/api/products/backoffice-rules/v1/evaluate-rules": {
    "changeOrigin": true,
    "logLevel": "debug",
    "pathRewrite": {
      "^/api/products/backoffice-rules/v1/evaluate-rules": ""
    },
    "secure": false,
    "target": "https://bo-rule-api.ave.eci.geci/evaluate-rules"
  },
  "/api/products/backoffice-searcher-schemas/v1/products/manage-schemas": {
    "changeOrigin": true,
    "logLevel": "debug",
    "pathRewrite": {
      "^/api/products/backoffice-searcher-schemas/v1/products/manage-schemas": ""
    },
    "secure": false,
    "target": "https://search-schema-api.ave.eci.geci/products/manage-schemas"
  },
  "/api/products/backoffice-sites-subsites/v2/subsites": {
    "changeOrigin": true,
    "logLevel": "debug",
    "pathRewrite": {
      "^/api/products/backoffice-sites-subsites/v2/subsites": ""
    },
    "secure": false,
    "target": "http://bo-site-subsite-apisyn.ave.eci.geci/subsites"
  },
  "/api/products/backoffice-sites-subsites/v2/sites": {
    "changeOrigin": true,
    "logLevel": "debug",
    "pathRewrite": {
      "^/api/products/backoffice-sites-subsites/v2/sites": ""
    },
    "secure": false,
    "target": "http://bo-site-subsite-apisyn.ave.eci.geci/sites"
  },
  "/api/products/backoffice-spec-templates/v2/products/templates": {
    "changeOrigin": true,
    "logLevel": "debug",
    "pathRewrite": {
      "^/api/products/backoffice-spec-templates/v2/products/templates": ""
    },
    "secure": false,
    "target": "https://bo-spec-template-apisyn.ave.eci.geci/products/templates"
  },
  "/api/products/facet/v1/facets": {
    "changeOrigin": true,
    "logLevel": "debug",
    "pathRewrite": {
      "^/api/products/facet/v1/facets": ""
    },
    "secure": false,
    "target": "https://bo-facet-apisyn.ave.eci.geci/facets"
  },
  "/api/products/marketplace-product-relations/v1": {
    "changeOrigin": true,
    "logLevel": "debug",
    "pathRewrite": {
      "^/api/products/marketplace-product-relations/v1": ""
    },
    "secure": false,
    "target": "https://mkp-product-relation-api.ave.eci.geci"
  },
  "/api/products/marketplace-product-types/v1": {
    "changeOrigin": true,
    "logLevel": "debug",
    "pathRewrite": {
      "^/api/products/marketplace-product-types/v1": ""
    },
    "secure": false,
    "target": "https://mkp-product-type-api.ave.eci.geci"
  },
  "/api/products/marketplace-sellers/v1": {
    "changeOrigin": true,
    "logLevel": "debug",
    "pathRewrite": {
      "^/api/products/marketplace-sellers/v1": ""
    },
    "secure": false,
    "target": "https://mkp-seller-api.ave.eci.geci"
  },
  "/api/products/product-type/v1/product-types/pz3c2qg46aax5q": {
    "changeOrigin": true,
    "logLevel": "debug",
    "pathRewrite": {
      "^/api/products/product-type/v1/product-types/pz3c2qg46aax5q": ""
    },
    "secure": false,
    "target": "https://bo-product-type-api.ave.eci.geci/product-types/pz3c2qg46aax5q"
  },
  "/api/promotions/backoffice-promotions/v1": {
    "changeOrigin": true,
    "logLevel": "debug",
    "pathRewrite": {
      "^/api/promotions/backoffice-promotions/v1": ""
    },
    "secure": false,
    "target": "http://promo-api.ave.eci.geci"
  }
}
