[
  {
    "assignment_mode": "CREATE",
    "filename": "file1",
    "import_date": "2020-08-23T10:20Z",
    "result": "Pending",
    "site": "Site 1",
    "validations": [
      {
        "code": 123,
        "level": "KO",
        "message": "OK"
      }
    ],
    "id": 123
  },
  {
    "assignment_mode": "DELETE",
    "filename": "file1",
    "import_date": "2020-08-23T10:20Z",
    "result": "Failed",
    "site": "Site 1",
    "validations": [
      {
        "code": 456,
        "level": "KO",
        "message": "OK"
      }
    ],
    "id": 456
  },
  {
    "assignment_mode": "PROCESSING",
    "filename": "file1",
    "import_date": "2020-08-23T10:20Z",
    "result": "Completed",
    "site": "Site 1",
    "validations": [
      {
        "code": 456,
        "level": "OK",
        "message": "OK"
      }
    ],
    "id": 456
  }
]
