[
  {
    "id": "2024b149-4488-4437-8fd8-0775686cf60b",
    "name": "cig-lunes",
    "data_type": "STRING"
  },
  {
    "id": "27628aa4-0f11-47e9-afab-aa29fbb157eb",
    "name": "ddddeeee",
    "data_type": "STRING"
  },
  {
    "id": "2b0d03f1-702e-4380-9cb8-d4b047d3989a",
    "name": "ererer3",
    "data_type": "STRING"
  },
  {
    "id": "30bb5f72-6c28-46f5-bcff-8db6c4bfb06c",
    "name": "QA_facet_ForkJoinPool-1-worker-3",
    "data_type": "STRING"
  },
  {
    "id": "3d059e28-dabf-4de1-bba0-b5650cf56bfd",
    "name": "integer.forPurposalTest",
    "data_type": "INTEGER"
  }
]
