{
  "content": [
    {
      "identifier": "at7u75vxroc2vfw",
      "path": "ProductosRelacionados",
      "name": "/Asociaciones_ISS/ComposicionAsociacion/ProductosRelacionados",
      "parent_attribute_tree_node_id": "atvkzrre6l6lr5g",
      "attributes_id": ["apuqmxdhxylju4"]
    },
    {
      "identifier": "atm43lcfg4txtca",
      "path": "ReferenciasRelacionadas",
      "name": "/Asociaciones_ISS/ComposicionAsociacion/ReferenciasRelacionadas",
      "parent_attribute_tree_node_id": "atvkzrre6l6lr5g",
      "attributes_id": ["apcfsji3sczrzo", "atc5ftarmgwuzm"]
    },
    {
      "identifier": "atnnudauktaspgc",
      "path": "DefinicionAsociacion",
      "name": "/Asociaciones_ISS/DefinicionAsociacion",
      "parent_attribute_tree_node_id": "atntsimaonqcnr4",
      "attributes_id": ["afwuzqjtbcdebk", "amwhnkpdxmtn5c"]
    },
    { "identifier": "atntsimaonqcnr4", "path": "ROOT", "name": "/Asociaciones_ISS/", "attributes_id": ["acgbnyu7fsybde"] },
    {
      "identifier": "atr5hn6ca4ybtk2",
      "path": "CaracteristicasGenerales",
      "name": "/Asociaciones_ISS/CaracteristicasGenerales",
      "parent_attribute_tree_node_id": "atntsimaonqcnr4",
      "attributes_id": ["ab5shxkloxfbow", "aqbxryut2msb4s", "arwm7k4cmp6fl6"]
    },
    {
      "identifier": "atvkzrre6l6lr5g",
      "path": "ComposicionAsociacion",
      "name": "/Asociaciones_ISS/ComposicionAsociacion",
      "parent_attribute_tree_node_id": "atntsimaonqcnr4",
      "attributes_id": []
    }
  ],
  "page": { "page_size": 6, "page_number": 0, "total_pages": 1, "total_elements": 6 }
}
