[
  {
    "product_type_id": "pzz5o6ax6vjcv5",
    "name": "Asociaciones",
    "layouts": [
      {
        "type": "ROW",
        "columns": [
          {
            "type": "COLUMN",
            "items": [
              {
                "type": "LABEL",
                "label": {
                  "es_ES": "availability_ends"
                }
              },
              {
                "type": "LABEL",
                "label": {
                  "es_ES": "Availability Ends"
                }
              }
            ]
          },
          {
            "type": "COLUMN",
            "items": [
              {
                "type": "ATTRIBUTE",
                "value": {
                  "es_ES": "gtin"
                },
                "path": "/bundle_of/bar_code_variants/gtin",
                "is_i18n": false
              },
              {
                "type": "ATTRIBUTE",
                "value": {
                  "es_ES": "Gtin"
                },
                "path": "/Offer/bundle_of/bar_code_variants/gtin",
                "attribute_type": "STRING",
                "is_i18n": false
              }
            ]
          }
        ]
      }
    ]
  },
  {
    "product_type_id": "pzz5o6ax6vjcvs",
    "name": "Lavadoras_ISS",
    "layouts": [
      {
        "type": "ROW",
        "columns": [
          {
            "type": "COLUMN",
            "items": [
              {
                "type": "LABEL",
                "label": [
                  {
                    "locale": "es_ES",
                    "value": "Temperaturas de lavado"
                  }
                ]
              }
            ]
          },
          {
            "type": "COLUMN",
            "items": [
              {
                "type": "ATTRIBUTE",
                "name": "au6lcl7mnq2aig",
                "value": [
                  {
                    "locale": "es_ES",
                    "value": "Temperaturas de lavado"
                  }
                ]
              }
            ]
          }
        ]
      },
      {
        "type": "ROW",
        "columns": [
          {
            "type": "COLUMN",
            "items": [
              {
                "type": "LABEL",
                "label": [
                  {
                    "locale": "es_ES",
                    "value": "Medidas"
                  }
                ]
              },
              {
                "type": "COMPOSER",
                "composer_type": "OPENING_BRACKETS"
              },
              {
                "type": "LABEL",
                "label": [
                  {
                    "locale": "es_ES",
                    "value": "Ancho"
                  }
                ]
              },
              {
                "type": "COMPOSER",
                "composer_type": "SYMBOL_X"
              },
              {
                "type": "LABEL",
                "label": [
                  {
                    "locale": "es_ES",
                    "value": "Alto"
                  }
                ]
              },
              {
                "type": "COMPOSER",
                "composer_type": "SYMBOL_X"
              },
              {
                "type": "LABEL",
                "label": [
                  {
                    "locale": "es_ES",
                    "value": "Fondo"
                  }
                ]
              },
              {
                "type": "COMPOSER",
                "composer_type": "CLOSING_BRACKETS"
              }
            ]
          },
          {
            "type": "COLUMN",
            "items": [
              {
                "type": "COMPOSER",
                "composer_type": "OPENING_BRACKETS"
              },
              {
                "type": "ATTRIBUTE",
                "name": "amebkd3cxnn4rg",
                "value": [
                  {
                    "locale": "es_ES",
                    "value": "Ancho"
                  }
                ]
              },
              {
                "type": "COMPOSER",
                "composer_type": "SYMBOL_X"
              },
              {
                "type": "ATTRIBUTE",
                "name": "aakpdw4iabvqvw",
                "value": [
                  {
                    "locale": "es_ES",
                    "value": "Alto"
                  }
                ]
              },
              {
                "type": "COMPOSER",
                "composer_type": "SYMBOL_X"
              },
              {
                "type": "ATTRIBUTE",
                "name": "ab37wkajv6llhy",
                "value": [
                  {
                    "locale": "es_ES",
                    "value": "Fondo"
                  }
                ]
              },
              {
                "type": "COMPOSER",
                "composer_type": "CLOSING_BRACKETS"
              }
            ]
          }
        ]
      },
      {
        "type": "ROW",
        "columns": [
          {
            "type": "COLUMN",
            "items": [
              {
                "type": "LABEL",
                "label": [
                  {
                    "locale": "es_ES",
                    "value": "Eficacia de centrifugado"
                  }
                ]
              }
            ]
          },
          {
            "type": "COLUMN",
            "items": [
              {
                "type": "ATTRIBUTE",
                "name": "armzyxzb4co4dq",
                "value": [
                  {
                    "locale": "es_ES",
                    "value": "Eficacia de centrifugado"
                  }
                ]
              }
            ]
          }
        ]
      },
      {
        "type": "SECTION_WITH_LINE",
        "title": {
          "type": "ROW",
          "columns": [
            {
              "type": "COLUMN",
              "items": [
                {
                  "type": "LABEL",
                  "label": [
                    {
                      "locale": "es_ES",
                      "value": "Sección multiidioma"
                    }
                  ]
                }
              ]
            }
          ]
        },
        "items": [
          {
            "type": "ROW",
            "columns": [
              {
                "type": "COLUMN",
                "items": [
                  {
                    "type": "LABEL",
                    "label": [
                      {
                        "locale": "es_ES",
                        "value": "Eficacia de centrifugado"
                      }
                    ]
                  }
                ]
              },
              {
                "type": "COLUMN",
                "items": [
                  {
                    "type": "ATTRIBUTE",
                    "name": "armzyxzb4co4dq",
                    "value": [
                      {
                        "locale": "es_ES",
                        "value": "Eficacia de centrifugado"
                      }
                    ]
                  }
                ]
              }
            ]
          },
          {
            "type": "ROW",
            "columns": [
              {
                "type": "COLUMN",
                "items": [
                  {
                    "type": "LABEL",
                    "label": [
                      {
                        "locale": "es_ES",
                        "value": "Eficacia de lavado (ECO)"
                      }
                    ]
                  }
                ]
              },
              {
                "type": "COLUMN",
                "items": [
                  {
                    "type": "ATTRIBUTE",
                    "name": "atu5q5txd5nulo",
                    "value": [
                      {
                        "locale": "es_ES",
                        "value": "Eficacia de lavado (ECO)"
                      }
                    ]
                  }
                ]
              }
            ]
          }
        ]
      }
    ]
  }
]
