<?xml version="1.0" encoding="UTF-8"?>
<svg width="19px" height="19px" viewBox="0 0 19 19" version="1.1" xmlns="http://www.w3.org/2000/svg" xmlns:xlink="http://www.w3.org/1999/xlink">
    <title>8B42E5D9-EDE9-4FDE-93E1-3AF3DFC05521</title>
    <g id="ECI-Firefly-FASE-2" stroke="none" stroke-width="1" fill="none" fill-rule="evenodd" stroke-linecap="round" stroke-linejoin="round">
        <g id="09---ADMIN-FACETS-OK" transform="translate(-81.000000, -207.000000)" stroke="black" stroke-width="1.3">
            <g id="Group-4" transform="translate(45.000000, 95.000000)">
                <g id="MenuBar/Side/Button" transform="translate(0.000000, 62.000000)">
                    <g id="Navigation/Tree_element" transform="translate(23.000000, 39.000000)">
                        <g id="Icons/View" transform="translate(7.000000, 5.000000)">
                            <path d="M11.25,20.3043478 L13.4673913,20.3043478 M7.36956522,22.5217391 L18.4565217,22.5217391 C18.4565217,21.2971077 17.4637618,20.3043478 16.2391304,20.3043478 L13.4673913,20.3043478 C13.4673913,19.0797164 12.4746314,18.0869565 11.25,18.0869565 L7.36956522,18.0869565 M19.5652174,19.1956522 L15.1304348,17.5326087 L15.1304348,11.9891304 L19.5652174,13.6521739 L19.5652174,19.1956522 L19.5652174,19.1956522 Z M19.5652174,19.1956522 L24,17.5326087 L24,11.9891304 L19.5652174,13.6521739 L19.5652174,19.1956522 L19.5652174,19.1956522 Z M24,11.9891304 L19.5652174,10.326087 L15.1304348,11.9891304 M19.5652174,10.326087 C19.5652174,9.71377126 20.0615973,9.2173913 20.673913,9.2173913 L22.8913043,9.2173913 C23.50362,9.2173913 24,8.72101135 24,8.10869565 C24,7.49637995 23.50362,7 22.8913043,7 L14.0217391,7 M7.36956522,16.9782609 L7.36956522,23.6304348" id="Atributos"></path>
                        </g>
                    </g>
                </g>
            </g>
        </g>
    </g>
</svg>
