[
  {
    "id": "scope_type||aragon",
    "scope": "Aragon",
    "countries": ["España"],
    "cities": ["Teruel"],
    "zip_codes": ["51010-51020"],
    "district_codes": ["PT19, PT20"]
  },
  {
    "id": "scope_type||açores",
    "scope": "Açores",
    "countries": ["Portugal"],
    "district_codes": ["44", "45", "46", "47", "48", "49", "41", "42", "43"]
  },
  {
    "id": "scope_type||castilla la mancha",
    "scope": "Castilla La Mancha",
    "countries": ["España"],
    "cities": ["Toledo"],
    "zip_codes": ["51010-51020"],
    "district_codes": ["PT19, PT20"]
  },
  {
    "id": "scope_type||comunidad",
    "scope": "Comunidad",
    "countries": ["Pais"],
    "cities": ["Ciudad"],
    "zip_codes": ["51010-51020"],
    "district_codes": ["PT19, PT20"]
  },
  {
    "id": "scope_type||extremadura",
    "scope": "Extremadura",
    "countries": ["España"],
    "cities": ["Badajoz"],
    "zip_codes": ["38010-38020", "38030-38030"],
    "district_codes": ["PT07"]
  },
  {
    "id": "scope_type||la rioja",
    "scope": "La Rioja",
    "countries": ["España"],
    "cities": ["Logroño"],
    "zip_codes": ["51010-51020"],
    "district_codes": ["PT19, PT20"]
  },
  {
    "id": "scope_type||madeira",
    "scope": "Madeira",
    "countries": ["Portugal"],
    "district_codes": ["31", "32"]
  },
  {
    "id": "scope_type||madrid",
    "scope": "Madrid",
    "countries": ["España"],
    "cities": ["Madrid"],
    "zip_codes": ["28030-28030", "28010-28020"],
    "district_codes": ["PT03"]
  },
  {
    "id": "scope_type||murcia",
    "scope": "Murcia",
    "countries": ["España"],
    "cities": ["Murcia"],
    "zip_codes": ["51010-51020"],
    "district_codes": ["PT19, PT20"]
  },
  {
    "id": "scope_type||navarra",
    "scope": "Navarra",
    "countries": ["España"],
    "cities": ["Arruazu"],
    "zip_codes": ["51010-51020-51019"],
    "district_codes": ["PT19, PT20, PT33"]
  },
  {
    "id": "scope_type||peninsula",
    "scope": "Peninsula",
    "countries": ["España"],
    "cities": ["Sevilla"],
    "zip_codes": ["41010-41020"],
    "district_codes": ["PT03"]
  },
  {
    "id": "scope_type||península",
    "scope": "Península",
    "countries": ["España"],
    "cities": ["Sevilla"],
    "zip_codes": ["41010-41020"],
    "district_codes": ["PT03"]
  },
  {
    "id": "scope_type||prueba",
    "scope": "Prueba",
    "countries": ["España"],
    "cities": ["ciudad de prueba"],
    "zip_codes": ["51010-51020"],
    "district_codes": ["PT19, PT20"]
  },
  {
    "id": "scope_type||pruebapeninsula",
    "scope": "PruebaPeninsula",
    "countries": ["España"],
    "cities": ["Sevilla"],
    "zip_codes": ["41010-41020"],
    "district_codes": ["PT03"]
  },
  {
    "id": "scope_type||qa_geozones_worker-1",
    "scope": "QA_geozones_worker-1",
    "countries": ["Brasil"],
    "cities": ["Barsilia"],
    "zip_codes": ["1000-2000"],
    "district_codes": ["D1"]
  },
  {
    "id": "scope_type||sevilla",
    "scope": "sevilla",
    "zip_codes": ["41010-41020"]
  }
]
